{
    "solver": {
        "beqm": 0,
        "dt": 25,
        "ts": 1,
        "stol": 1e-09,
        "lumping": false,
        "opsplit": true
    },
    "functions": {
        "ventricle-norm": {
            "EP": {
                "model": "TT2",
                "modelpar": null,
                "plugs": null,
                "plugspar": null,
                "bcl": 600.0,
                "init": "./init/ventricle-norm_TT2_bcl_600.0.sv",
                "apdresptcl": "std-S1S2",
                "apdres": "./init/ventricle-norm_TT2_bcl_600.0_APD_restitution.dat",
                "mutable": true,
                "cycles": 20,
                "DI": [
                    289.47,
                    280.78,
                    272.13,
                    263.37,
                    254.49,
                    245.5,
                    236.39,
                    227.19,
                    217.94,
                    208.58,
                    199.17,
                    189.69,
                    180.16,
                    170.58,
                    160.96,
                    151.28,
                    141.58,
                    131.83,
                    122.05,
                    112.25,
                    102.43,
                    92.57,
                    82.71,
                    72.81,
                    62.88,
                    52.95,
                    43.02,
                    33.05,
                    23.08
                ],
                "APD": [
                    299.51,
                    297.13,
                    294.65,
                    292.2,
                    289.8,
                    287.39,
                    284.97,
                    282.53,
                    280.02,
                    277.44,
                    274.75,
                    271.96,
                    269.01,
                    265.88,
                    262.57,
                    259.01,
                    255.21,
                    251.1,
                    246.67,
                    241.87,
                    236.68,
                    231.02,
                    224.88,
                    218.18,
                    210.84,
                    202.75,
                    193.8,
                    184.41,
                    180.61
                ]
            },
            "CV": {
                "dx": 400.0,
                "CVref": {
                    "vf": 0.8533,
                    "vs": 0.4732,
                    "vn": 0.4732
                },
                "CVmeas": {
                    "vf": 0.6,
                    "vs": 0.4,
                    "vn": 0.2
                },
                "G": {
                    "gil": 0.255,
                    "gel": 0.625,
                    "git": 0.0775,
                    "get": 0.236,
                    "gin": 0.0775,
                    "gen": 0.236,
                    "surf2vol": 0.14
                },
                "mutable": true
            }
        },
        "ventricle-bz": {
            "EP": {
                "model": "TT2",
                "modelpar": "GNa-62%,GCaL-69%,Gkr-70%,Gks-80%",
                "plugs": null,
                "plugspar": null,
                "bcl": 600.0,
                "init": "./init/ventricle-bz_TT2_bcl_600.0.sv",
                "apdresptcl": "std-S1S2",
                "apdres": "./init/ventricle-bz_TT2_bcl_600.0_APD_restitution.dat",
                "mutable": true,
                "cycles": 20
            },
            "CV": {
                "dx": 400.0,
                "CVref": {
                    "vf": 0.5909,
                    "vs": 0.1072,
                    "vn": 0.1072
                },
                "CVmeas": {
                    "vf": 0.6,
                    "vs": 0.4,
                    "vn": 0.2
                },
                "G": {
                    "gil": 0.255,
                    "gel": 0.625,
                    "git": 0.00775,
                    "get": 0.236,
                    "gin": 0.00775,
                    "gen": 0.236,
                    "surf2vol": 0.14
                },
                "mutable": true
            }
        },
        "scar": {
            "EP": null,
            "CV": {
                "G": {
                    "gbath": 0.2
                }
            }
        },
        "bath": {
            "EP": null,
            "CV": {
                "G": {
                    "gbath": 1.0
                }
            }
        }
    },
    "electrodes": {
        "S0600-RAD": {
            "type": "sphere",
            "p0": [
                0,
                -30000,
                0
            ],
            "radius": 1000
        },
        "S1200-RAD": {
            "type": "sphere",
            "p0": [
                0,
                30000,
                0
            ],
            "radius": 1000
        }
    },
    "protocols": {
        "APD-restitution": {
            "std-S1S2": {
                "type": "S1S2",
                "pp_beats": 20,
                "bcl": 600,
                "CI1": 600,
                "CI0": 50,
                "pm_beats": 5,
                "pm_dec": 10
            },
            "std-dyn": {
                "type": "dynamic",
                "pp_beats": 20,
                "bcl": 600,
                "CI1": 600,
                "CI0": 50,
                "pm_beats": 5,
                "pm_dec": 10
            }
        },
        "prepace": {
            "propagation": "rd",
            "bcl": 600,
            "cycles": 2,
            "electrodes": [
                "S0139-RAD"
            ],
            "rel-timings": [
                0
            ],
            "lat": "./init/prepace_act_seq_ek.dat"
        }
    }
}